-- Merging decision tree log ---
manifest
ADDED from /Users/Zulu/wanderlust/android/app/src/main/AndroidManifest.xml:1:1-36:12
	package
		ADDED from /Users/Zulu/wanderlust/android/app/src/main/AndroidManifest.xml:2:5-29
		INJECTED from /Users/Zulu/wanderlust/android/app/src/main/AndroidManifest.xml
		INJECTED from /Users/Zulu/wanderlust/android/app/src/main/AndroidManifest.xml
	android:versionName
		ADDED from /Users/Zulu/wanderlust/android/app/src/main/AndroidManifest.xml:4:5-30
		INJECTED from /Users/Zulu/wanderlust/android/app/src/main/AndroidManifest.xml
		INJECTED from /Users/Zulu/wanderlust/android/app/src/main/AndroidManifest.xml
	android:versionCode
		ADDED from /Users/Zulu/wanderlust/android/app/src/main/AndroidManifest.xml:3:5-28
		INJECTED from /Users/Zulu/wanderlust/android/app/src/main/AndroidManifest.xml
		INJECTED from /Users/Zulu/wanderlust/android/app/src/main/AndroidManifest.xml
	xmlns:android
		ADDED from /Users/Zulu/wanderlust/android/app/src/main/AndroidManifest.xml:1:11-69
uses-permission#android.permission.INTERNET
ADDED from /Users/Zulu/wanderlust/android/app/src/main/AndroidManifest.xml:6:5-67
	android:name
		ADDED from /Users/Zulu/wanderlust/android/app/src/main/AndroidManifest.xml:6:22-64
uses-permission#android.permission.SYSTEM_ALERT_WINDOW
ADDED from /Users/Zulu/wanderlust/android/app/src/main/AndroidManifest.xml:7:5-77
MERGED from [com.facebook.react:react-native:0.45.1] /Users/Zulu/wanderlust/android/app/build/intermediates/exploded-aar/com.facebook.react/react-native/0.45.1/AndroidManifest.xml:11:5-78
	android:name
		ADDED from /Users/Zulu/wanderlust/android/app/src/main/AndroidManifest.xml:7:22-75
uses-permission#android.permission.CAMERA
ADDED from /Users/Zulu/wanderlust/android/app/src/main/AndroidManifest.xml:8:5-65
	android:name
		ADDED from /Users/Zulu/wanderlust/android/app/src/main/AndroidManifest.xml:8:22-62
uses-permission#android.permission.WRITE_EXTERNAL_STORAGE
ADDED from /Users/Zulu/wanderlust/android/app/src/main/AndroidManifest.xml:9:1-76
	android:name
		ADDED from /Users/Zulu/wanderlust/android/app/src/main/AndroidManifest.xml:9:18-74
uses-permission#android.permission.READ_EXTERNAL_STORAGE
ADDED from /Users/Zulu/wanderlust/android/app/src/main/AndroidManifest.xml:10:5-80
	android:name
		ADDED from /Users/Zulu/wanderlust/android/app/src/main/AndroidManifest.xml:10:22-77
uses-sdk
ADDED from /Users/Zulu/wanderlust/android/app/src/main/AndroidManifest.xml:13:5-15:41
MERGED from [Wanderlust:react-native-image-picker:unspecified] /Users/Zulu/wanderlust/android/app/build/intermediates/exploded-aar/Wanderlust/react-native-image-picker/unspecified/AndroidManifest.xml:7:5-9:41
MERGED from [Wanderlust:react-native-fetch-blob:unspecified] /Users/Zulu/wanderlust/android/app/build/intermediates/exploded-aar/Wanderlust/react-native-fetch-blob/unspecified/AndroidManifest.xml:7:5-9:41
MERGED from [com.facebook.react:react-native:0.45.1] /Users/Zulu/wanderlust/android/app/build/intermediates/exploded-aar/com.facebook.react/react-native/0.45.1/AndroidManifest.xml:7:5-9:41
MERGED from [com.android.support:appcompat-v7:23.0.1] /Users/Zulu/wanderlust/android/app/build/intermediates/exploded-aar/com.android.support/appcompat-v7/23.0.1/AndroidManifest.xml:20:5-43
MERGED from [com.android.support:support-v4:23.0.1] /Users/Zulu/wanderlust/android/app/build/intermediates/exploded-aar/com.android.support/support-v4/23.0.1/AndroidManifest.xml:20:5-43
MERGED from [com.facebook.fbui.textlayoutbuilder:textlayoutbuilder:1.0.0] /Users/Zulu/wanderlust/android/app/build/intermediates/exploded-aar/com.facebook.fbui.textlayoutbuilder/textlayoutbuilder/1.0.0/AndroidManifest.xml:14:5-16:41
MERGED from [com.facebook.fresco:fresco:1.0.1] /Users/Zulu/wanderlust/android/app/build/intermediates/exploded-aar/com.facebook.fresco/fresco/1.0.1/AndroidManifest.xml:5:5-7:41
MERGED from [com.facebook.fresco:drawee:1.0.1] /Users/Zulu/wanderlust/android/app/build/intermediates/exploded-aar/com.facebook.fresco/drawee/1.0.1/AndroidManifest.xml:5:5-7:41
MERGED from [com.facebook.fresco:imagepipeline-okhttp3:1.0.1] /Users/Zulu/wanderlust/android/app/build/intermediates/exploded-aar/com.facebook.fresco/imagepipeline-okhttp3/1.0.1/AndroidManifest.xml:5:5-7:41
MERGED from [com.facebook.fresco:imagepipeline:1.0.1] /Users/Zulu/wanderlust/android/app/build/intermediates/exploded-aar/com.facebook.fresco/imagepipeline/1.0.1/AndroidManifest.xml:5:5-7:41
MERGED from [com.facebook.fresco:imagepipeline-base:1.0.1] /Users/Zulu/wanderlust/android/app/build/intermediates/exploded-aar/com.facebook.fresco/imagepipeline-base/1.0.1/AndroidManifest.xml:5:5-7:41
MERGED from [com.facebook.fresco:fbcore:1.0.1] /Users/Zulu/wanderlust/android/app/build/intermediates/exploded-aar/com.facebook.fresco/fbcore/1.0.1/AndroidManifest.xml:5:5-7:41
MERGED from [com.facebook.soloader:soloader:0.1.0] /Users/Zulu/wanderlust/android/app/build/intermediates/exploded-aar/com.facebook.soloader/soloader/0.1.0/AndroidManifest.xml:2:3-70
	android:targetSdkVersion
		ADDED from /Users/Zulu/wanderlust/android/app/src/main/AndroidManifest.xml:15:9-38
		INJECTED from /Users/Zulu/wanderlust/android/app/src/main/AndroidManifest.xml
		INJECTED from /Users/Zulu/wanderlust/android/app/src/main/AndroidManifest.xml
	android:minSdkVersion
		ADDED from /Users/Zulu/wanderlust/android/app/src/main/AndroidManifest.xml:14:9-35
		INJECTED from /Users/Zulu/wanderlust/android/app/src/main/AndroidManifest.xml
		INJECTED from /Users/Zulu/wanderlust/android/app/src/main/AndroidManifest.xml
application
ADDED from /Users/Zulu/wanderlust/android/app/src/main/AndroidManifest.xml:17:5-34:19
MERGED from [Wanderlust:react-native-image-picker:unspecified] /Users/Zulu/wanderlust/android/app/build/intermediates/exploded-aar/Wanderlust/react-native-image-picker/unspecified/AndroidManifest.xml:11:5-21:19
MERGED from [Wanderlust:react-native-fetch-blob:unspecified] /Users/Zulu/wanderlust/android/app/build/intermediates/exploded-aar/Wanderlust/react-native-fetch-blob/unspecified/AndroidManifest.xml:11:5-12:19
MERGED from [com.facebook.react:react-native:0.45.1] /Users/Zulu/wanderlust/android/app/build/intermediates/exploded-aar/com.facebook.react/react-native/0.45.1/AndroidManifest.xml:13:5-20
MERGED from [com.android.support:appcompat-v7:23.0.1] /Users/Zulu/wanderlust/android/app/build/intermediates/exploded-aar/com.android.support/appcompat-v7/23.0.1/AndroidManifest.xml:22:5-20
MERGED from [com.android.support:support-v4:23.0.1] /Users/Zulu/wanderlust/android/app/build/intermediates/exploded-aar/com.android.support/support-v4/23.0.1/AndroidManifest.xml:22:5-20
MERGED from [com.facebook.soloader:soloader:0.1.0] /Users/Zulu/wanderlust/android/app/build/intermediates/exploded-aar/com.facebook.soloader/soloader/0.1.0/AndroidManifest.xml:3:3-17
MERGED from [org.webkit:android-jsc:r174650] /Users/Zulu/wanderlust/android/app/build/intermediates/exploded-aar/org.webkit/android-jsc/r174650/AndroidManifest.xml:2:3-17
	android:label
		ADDED from /Users/Zulu/wanderlust/android/app/src/main/AndroidManifest.xml:20:7-39
	android:allowBackup
		ADDED from /Users/Zulu/wanderlust/android/app/src/main/AndroidManifest.xml:19:7-33
	android:icon
		ADDED from /Users/Zulu/wanderlust/android/app/src/main/AndroidManifest.xml:21:7-41
	android:theme
		ADDED from /Users/Zulu/wanderlust/android/app/src/main/AndroidManifest.xml:22:7-38
	android:name
		ADDED from /Users/Zulu/wanderlust/android/app/src/main/AndroidManifest.xml:18:7-38
activity#com.wanderlust.MainActivity
ADDED from /Users/Zulu/wanderlust/android/app/src/main/AndroidManifest.xml:23:7-32:18
	android:label
		ADDED from /Users/Zulu/wanderlust/android/app/src/main/AndroidManifest.xml:25:9-41
	android:windowSoftInputMode
		ADDED from /Users/Zulu/wanderlust/android/app/src/main/AndroidManifest.xml:27:9-51
	android:configChanges
		ADDED from /Users/Zulu/wanderlust/android/app/src/main/AndroidManifest.xml:26:9-79
	android:name
		ADDED from /Users/Zulu/wanderlust/android/app/src/main/AndroidManifest.xml:24:9-37
intent-filter#android.intent.action.MAIN+android.intent.category.LAUNCHER
ADDED from /Users/Zulu/wanderlust/android/app/src/main/AndroidManifest.xml:28:9-31:25
action#android.intent.action.MAIN
ADDED from /Users/Zulu/wanderlust/android/app/src/main/AndroidManifest.xml:29:13-65
	android:name
		ADDED from /Users/Zulu/wanderlust/android/app/src/main/AndroidManifest.xml:29:21-62
category#android.intent.category.LAUNCHER
ADDED from /Users/Zulu/wanderlust/android/app/src/main/AndroidManifest.xml:30:13-73
	android:name
		ADDED from /Users/Zulu/wanderlust/android/app/src/main/AndroidManifest.xml:30:23-70
activity#com.facebook.react.devsupport.DevSettingsActivity
ADDED from /Users/Zulu/wanderlust/android/app/src/main/AndroidManifest.xml:33:7-84
	android:name
		ADDED from /Users/Zulu/wanderlust/android/app/src/main/AndroidManifest.xml:33:17-81
provider#android.support.v4.content.FileProvider
ADDED from [Wanderlust:react-native-image-picker:unspecified] /Users/Zulu/wanderlust/android/app/build/intermediates/exploded-aar/Wanderlust/react-native-image-picker/unspecified/AndroidManifest.xml:12:9-20:20
	android:authorities
		ADDED from [Wanderlust:react-native-image-picker:unspecified] /Users/Zulu/wanderlust/android/app/build/intermediates/exploded-aar/Wanderlust/react-native-image-picker/unspecified/AndroidManifest.xml:14:13-60
	android:grantUriPermissions
		ADDED from [Wanderlust:react-native-image-picker:unspecified] /Users/Zulu/wanderlust/android/app/build/intermediates/exploded-aar/Wanderlust/react-native-image-picker/unspecified/AndroidManifest.xml:16:13-47
	android:exported
		ADDED from [Wanderlust:react-native-image-picker:unspecified] /Users/Zulu/wanderlust/android/app/build/intermediates/exploded-aar/Wanderlust/react-native-image-picker/unspecified/AndroidManifest.xml:15:13-37
	android:name
		ADDED from [Wanderlust:react-native-image-picker:unspecified] /Users/Zulu/wanderlust/android/app/build/intermediates/exploded-aar/Wanderlust/react-native-image-picker/unspecified/AndroidManifest.xml:13:13-67
meta-data#android.support.FILE_PROVIDER_PATHS
ADDED from [Wanderlust:react-native-image-picker:unspecified] /Users/Zulu/wanderlust/android/app/build/intermediates/exploded-aar/Wanderlust/react-native-image-picker/unspecified/AndroidManifest.xml:17:13-19:58
	android:resource
		ADDED from [Wanderlust:react-native-image-picker:unspecified] /Users/Zulu/wanderlust/android/app/build/intermediates/exploded-aar/Wanderlust/react-native-image-picker/unspecified/AndroidManifest.xml:19:17-55
	android:name
		ADDED from [Wanderlust:react-native-image-picker:unspecified] /Users/Zulu/wanderlust/android/app/build/intermediates/exploded-aar/Wanderlust/react-native-image-picker/unspecified/AndroidManifest.xml:18:17-67
android:uses-permission#android.permission.READ_PHONE_STATE
IMPLIED from /Users/Zulu/wanderlust/android/app/src/main/AndroidManifest.xml:1:1-36:12 reason: org.webkit.android_jsc has a targetSdkVersion < 4
